Schadenshergang;Objekte;Schadensursache
Der Knetkacken ist mir beim Abtrocknen runter auf die Glaskeramikplatte gefallen.;Glaskeramikplatte  ;Glasbruch
Habe am 31. Juli auf der Terrasse Dachisolationsfetzen gefunden. Am 2. August dann den Eingang für den Marder festgestellt.;  Neu Saniertes Dach 2017, übergang Altbau zu Anbau, siehe Foto;Marder-, Nager- oder Insektenschäden
Die Fäkalienpumpe im UG stellt nicht mehr ab und in der Toilette im Studio hat sich eine Wasserlache gebildet. Diese konnte sofort gereinigt werden. Das Gerät muss aber gem. Fa. Bacher AG, Sanitär, Thun Herren Lüthy und Mathys ersetzt werden. Sie bitten mich das Gerät wie das vorherige im Sanitätshop.de zu beschaffen.;Fäkelienzerkleinerer SFA Sanipro XR UP 0015UP Art. Nr. 601FU keine Bisher keine;Gebäudetechnik
Beim Unwetter wurde Lamellenstore beschädigt; Wohnung DG rechts 1 Lamellenstore ;Hagel
unbekannt, wir vermuten als Ursache einer der Winterstürme 2017/18 (Datum ob ist eine Schätzung);keine keine Dachgiebel;Sturmwind
Die Fassade der Liegenschaft wurde versprayt;  Fassadenteile;Vandalismus
Graffiti an Fassade;  Fassade;Vandalismus
Vermutlich ist ein Feuerwerkskörper auf die Sonnenstore geflogen.;  Sonnenstore;Feuer
"Sturm hat Ziegel \""weggeluftet\""";  Dach;Sturmwind
Suite au forte pluie de fin janvier 2018, de l\'eau s\'est introduit dans le bâtiment.;  mesures d\'assèchements, petite menuiserie (meubles de cuisine).;Grund-/Hangwasser
Steinkorbzaun umgerissen und oder umgefahren; Rasenfläche Steinkörbe und Rasenfläche;Vandalismus
Durch das heftige Gewitter mit Hagel wurden die Ortladen beschädigt.;  Ortladen, weiteres nicht bekannt;Hagel
Wasserschaden während Aushärtungsphase der Futtertischbeschichtung durch Gewitter;- - Boden;Regen-/Schnee-/Schmelzwasser
Wassereinbruch;  ;Überschwemmung
Wassereintritt von aussen in Waschküche;  Türe mit Rahmen, Boden;elektrische Überspannung bei Gewitter
Der Schimmel wurde im Keller entdeckt.;  Keller Boden/Wände;Gebäudehaftpflichtsfall
Brand bei Umbau / Sanierung Schulhaus im Saal Dachgeschoss. Der Brand ist in einer Pflastermulde mit Holz entfacht. Die Feuer konnte das Feuer löschen.;  Dachkonstruktion und Boden;Feuer
Sturmwind Der starke Sturm beschädigte das Welleternit-Dach, das vermutlich durch ein früheres Hagelereignis unsichtbar angeschlagen wurde;  Welleternit-Dach;Sturmwind
Graffitis an Blumentrog beim Parkplatz.;  ;Vandalismus
"Am Dienstag, 3.7.2018 wurde uns infolge Sintflutartigen Regenfällen, welche stundenlang andauerten, ein Teil unseres Kellers überflutet. Wir haben sofort den Dachdecker Kohli, Mühleberg aufgefordert, die Situation des Dachkanals zu überprüfen. Dieser hat uns empfohlen, mit einer Rohrreinigungsfirma den Kanal des Dachwassers durchzuspülen. Dies wurde gleichentags durch die Firma Rohrreinigungen Flückiger erledigt. Gleichentags wurde am Nachmittag auf unseren Wunsch von der Firma Kohli Bedachungen ein provisorischer Dachwasser Ablauf erstellt. Da die Leitung zu nass war, wurde vereinbart, in ein paar Tagen mit der Kamera die Leitung auf Schäden zu überprüfen. Diese Kamera-Aufzeichnung wurde am 9.07.2018 durch die Firma Flückiger durchgeführt. Wir wurden auf die Firma InnoService aufmerksam gemacht, mit welcher wir am 31.07.2018 einen Termin vereinbaren konnten. Am 31.07.18 wurde die Leitung nochmals mit einer Kamera durch die Fa. InnoService inspiziert. Wir haben mit dem Geschäftsführer von InnoService abgemacht, dass er uns eine Offerte für eine \""Rohr in Rohr\""Sanierung zustellt. Dürfen wir Sie anfragen, ob von seitens GVB eine Kostenbeteiligung möglich Ist?";  ;Regen-/Schnee-/Schmelzwasser
Grafitti;  Umzäunung (gemauert);Vandalismus
Sturmbö beschädigte Knickarm Sonnenstore;Keine keine Knickarm Sonnenstore;Sturmwind
Die Simme ist durch auslaufen eines Gletschersees über die Ufer getreten.;Landwirtschaftliche Maschinen im Schopf eingestellt. Kreisler, Heuraupe, Rammaschien, Miststreuer, Schnitzelwagen. Diese müssen vom Schlamm gereinigt werden und beim Kreisler, Rammmaschien und bei der Heuraupe müssen die Gleitlager auf Verschmutzung überprüft werden. Dem Miststreuer und dem Schnitzelwagen ist nichts passiert. Miststreu Umgebung mit Schlamm, Steinen und Schwemmholz bedeckt Güllekasten voll mit Wasser und Schlamm Wagenschopf mit Schlamm bedekt, Umgebung mit Schlamm und Schwemmholz bedekt. Ins Holzschnitzellager ist Wasser eingedrungen.;Überschwemmung
Rückstau durch Fäkalien;keine keine Nasse Raum- und Oberfläche Kellerraum;Wasser: Rückstau
Wespennest hinter der Fassade;  Fassade, Isolation Fassade plus ev. Isolation Dach.;Marder-, Nager- oder Insektenschäden
Wassereintritt in Keller aufgrund Rückstau und starker Regen (verstopfte Abläufe im Hinterhof der Nachbarliegenschaft, deshalb zusätzlich Wassereintritt durch Fenster). Sofortmassnahme: Auspumpen/Trocknen.;Kühlsystem (Ventilation, Fixinstallation) des Kühlbuffets von Restaurant (Reparatur/Ersatz in Auftrag gegeben, pendent)  ;Wasser: Rückstau
Dieser Fall wurde bereits unter Schadennummer 2342797-A / 2342797-B gemeldet. Siehe entsprechende Korrespondenz von Ihrer Seite (dd 7.6.2018). Im Anschluss an die Reparatur des gebrochenen Gelenkarmes hat sich herausgestellt, dass der Motor ebenfalls kaputt gegangen ist. Deshalb musste dieser nun auch ersetzt werden. Entsprechend Ihrem Schreiben vom 7.6.2018 melde ich diesen Schaden hiermit nach.;  ;Gebäudetechnik
Grosses Wespennest an Sonnenstore festgestellt. Kosten für Entfernung (durch Feuerwehr entfernt worden) und Schaden am Sonnenstoren (grosses Loch);  Sonnenstore;Marder-, Nager- oder Insektenschäden
Aufgrund der Störungsmeldung hat der Service-Techniker von der Schindler AG festgestellt, dass an einer Komponente auf Grund äussere Einflüsse eine Reparatur notwendig war (Blitzschlag);Lift  ;Blitzschlag
Spreyereien;  Fassade;Vandalismus
Dach beschädigt;nein nein Dachziegel;Sturmwind
Leider flog ein Ball beim spielen unsrer Kindern an die Haustüre und beschädigte das Türglas.;  Glaselement Haustüre;Glasbruch
Durch das Hochwasser vom letzten Wochenende (27. – 29. Juli) wurden Teile des Grundstücks und die Grundwasser-Pumpenschächte mit Schlamm gefüllt.;Grundwasser-Pumpen  Grundwasser-Pumpen-Schächte welche zum Zentralgebäude gehören wurden beschädigt;Überschwemmung
Blitzschlag;Backofen/ Steamer  ;Blitzschlag
Sturm mit starkem Wind und Hagel gegen die Westfassade;  Westfassade - Holz (getupft);Hagel
Beschädigung des Garten/Rasen durch Wildtiere.;keine Rasen keine;Marder-, Nager- oder Insektenschäden
Nach starkem Gewitter wurde das Unterdach nass. Wasser drückt bei zwei Lukarnen unter die Ziegel.;  Dach;Regen-/Schnee-/Schmelzwasser
Unterspülung durch starke Gewitter;keine Belag Neben dem Eingang zum Teile und Zubehör ist der Belag weggebrochen.;Erdrutsch
Graffiti durch Unbekannte.;  ;Vandalismus
Sprayereien;  Fassade;Vandalismus
Aufgrund des Sommergewitter (mit Hagel) wurde die Lamellenstore beschädigt.;Lamellenstoren keine Lamellenstore im Wohnzimmer;Hagel
Wasser dringt durch Decke in Küche 1. OG; keine Decke Küche, Boden Dachgeschoss;Leitungsbruch
Braune Flecken bei dem Gewerberaum Pink Elefant GmbH. Beim Mieter oberhalb waren beim Küchenablauf die alten Verschraubungen lose - daher Wasseraustritt.;  Decke / Verschraubung Sifon;Leitungsbruch
Undichter Bodenablauf;  Decke von Einstellhalle;Leitungsbruch
"Folgeschaden nach Hochwasser im Keller (Tielkühlschrank stand im Wasser); nun am 31.07.2018 ausgestiegen";Tiefkühlschrank  Tiefkühlschrank plus gesamter Inhalt;Hochwasser
Hagel;"  Fassade (Umleibung); Lamellen";Hagel
Einschussloch im Fenster 5. OG Seite West Zimmer 3502, Polizeirapport vorhanden.;  Fenster;Vandalismus
Graffiti durch Unbekannte.;  ;Vandalismus
Durch heftige Niederschläge konnte das Dachwasser in der Sickerleitung nicht rasch genug abfliessen. Bei Kontrollschacht der Sickerleitung wurde dadurch der Dohlendeckel aufgedrückt und das Treppenpodest unterspült.; Podest Aussentreppe, evtl. Sickerleitung für Dachwasser ;Wasser: Rückstau
Glasbruch;  Glasscheibe;Glasbruch
Wasser im Keller aufgrund eines Rückstaus der Kanalisation. Der Sanitärinstallateur hat vermutet, dass in der Umgebung eine Kanalreinigung stattgefunden hat.;  Keine Reparaturen. Aufsaugen und Reinigen des Kellerbodens.;Grund-/Hangwasser
Beim Schleudergang machte die Waschmaschine enormen Lärm, danach kam eine Fehlermeldung, welche das Aufgebot eines Technikers notwendig machte;Waschmaschine  ;Gebäudetechnik
Am 3. Juli am Morgen fiel starker Regen mit Windböen in Bern, dies verursachte Überschwemmungen im Quartier.;  Im Keller und in Serverraum war den Boden komplett nass. Rohrleitungen verstopft.;Wasser: Rückstau
Ameisenbefall;  die Stütze des Hauses;Marder-, Nager- oder Insektenschäden
Einschussloch im Fenster des 2. OG, Zimmer:3206;  Fenster;Vandalismus
am 28. Juli 2018 ist vormittags ist ein heftiges Gewitter aufgetreten. Bei unseren Nachbarn - Fam. Wüthrich schlug ein Blitz ein.;- Steckdose bei der Terrasse - 2x Philips hue LightStripes+ - 1x Swisscom Modem - wurde aus kulanz von der Swisscom ersetzt. keine Schäden sichtbar keine Schäden am Gebäude sichtbar;Blitzschlag
"Wasserschaden Wand (von Fussleiste bis ca 50 cm) zwischen Schlafzimmer & Badzimmer; gelblich, feucht, «bröckelt» Ursache: Steckdichtung war nicht korrekt eingesetzt im Sifonanschlusswinkel und die Einstecktiefe war sehr knapp";  Boden und Wände sehr nass und Fussleisten verfault;Leitungsbruch
starkes Unwetter mit Hagel am späten Nachmittag des 1. August; Glassplitter in Rasenfläche Solaranlage für Warmwasseraufbereitung auf Bauernhaus. 1. Panel zersplittert;Hagel
Sturmtief Friederike beschädigte 2 Storen;  2 Storen;Sturmwind
Letzten August- beim Sturm, der am 1.8.2017 durch Rubigen fegte, wurde der Grill von Frau Jungi umgeworfen und hat auf ihrem Balkon einige Bodenplatten beschädigt.;Grill Bodenplatten auf Balkon Bodenplatten auf Balkon;Sturmwind
Nachdem die Fassaden der Toilettenanlage anfang Juli 2018 gereinigt wurde, wurden im Zeitraum vom 11.07.2018 – 24.07.2018 erneut Graffitis angebracht.;  Fassade;Vandalismus
wasser drückte durch Kamin;  mauer farbe-verputz;Regen-/Schnee-/Schmelzwasser
Ein Glasgefäss ist aus dem Spiegelschrank herunter auf den Keramik-Waschtisch gefallen. Zu diesem Zeitpunkt ist kein Schaden entstanden. Aber ca. 5 Minuten später beim Händewaschen hat es einen Sprung/Spalt im Waschtisch gegeben.;- - Waschtisch aus Keramik;Glasbruch
Blitzschlag, Heizung defekt (Elektronik);Heizung, Elektronik keine. Heizung, Elektronik defekt;Blitzschlag
hagel;  Fassade;Hagel
Spayereien;  Fassade;Vandalismus
Gewitter mit Hagel;  Storen und Fassade;Hagel
Haustüre wurde versprayt;  Haustüre;Vandalismus
Überschwemmung UG und EG;Waschmaschine und Tumbler Garten UG und EG;Hochwasser
Gewitter am Nachmittag hat Sonnenstore beschädigt; --- Riss in Sonnenstorenstoff;Sturmwind
Gewitter;Keine Keine Balkonboden;Hagel
Glasscheibe im Wohnzimmer EG einen Sprung innen durch Spannung (Sonne);Nein Nein Glasscheibe Wohnen Erdgeschoss;Glasbruch
Am 1. August ging über Säriswil ein Hagelgewitter mit starken Sturmböhen nieder. Unsere Sonnenstore war während unserer Abwesenheit draussen. Eigentlich hätte diese auf Grund von Sensoren automatisch einfahren sollen. Als wir jedoch während des Sturms nachhause kamen war die Store bereits eingestürzt. Es hatte sich ein grosser Wassersack gebildet und die Querstrebe war ausgerissen. Dadurch wurde die gesamte Konstruktion beschädigt.;Sonnenstore / Beschattungsanlage  Sonnenstore / Beschattungsanlage;Sturmwind
Ein Dachziegel hat sich vom Dach beim Chemineerohrdurchgang gelöst und rutschte herunter in das Gartenbeet.;keine keine Dachziegel;Sturmwind
Stores endommagés par la grêle;  Stores;Hagel
"Durch UT wurde ein \""Chrischichracher\"" in den Briefkasten gelegt und gezündet. Briefkasten defekt.";  Briefkasten;Vandalismus
Defektes Rückspülventil verursacht einen Schaden in Form von aussergewöhnlichen Wassermehrverbrauch von 700 m3.;Wasseraufbereitungsanlage keine keine;Leitungsbruch
In der Wohnküche ist aus der Wasserleitung der Spülmaschine Wasser ausgetreten und auf den Parkett gelaufen. Das Wasser stand dort über Nacht, so dass der Parkett auf einem Bereich -etwa in der Grösse DIN-A2- Schaden genommen hat. Er ist geschrumpft und es sind Risse entstanden, die sich trotz Pflegemassnahmen wie Ölen nicht mehr schliessen.;  Parkett;Leitungsbruch
Undichte Stelle auf dem Dach. Wasser wurde im Bade bemerkt da die Decke nass wurde.;  Dach, Sparren, Unterdach, Pfätten, Isolation, Badezimmer Decke, Badezimmer Wand, unvorhergesehenes erst bei der Demontage. Der Schreiner kommt nächste Woche um den Schaden aufzunehmen betreffend Offerte.;Regen-/Schnee-/Schmelzwasser
Bei der Wohnungsabnahme wurde festgestellt, dass rund um das WC ein Fleck ist. Messungen der Firma Zigerlig haben ergeben, dass es sich um Feuchtigkeit handelt.;  Boden Badezimmer, ev. darunterliegende Wohnung;Leitungsbruch
Hornissennest;keine keine keine;Marder-, Nager- oder Insektenschäden
"Aufgrund des Unwetters/heftigen Regens in der Nacht vom 02. auf den 03. Juli ist das Regenwasser bei meinem Parkplatz nicht mehr abgeflossen; ich habe dann notfallmässig \""RohrMax\"" aufgeboten. Leider konnte nicht mehr verhindert werden, dass das aufgestaute Wasser in den Luftschutzkeller eindrang. Das Wasser im Luftschutzkeller musste abgepumpt und die vom Unwetter-Dreck verstopften Leitung gesäubert werden. Ich konnte alles Mobiliar aus dem Luftschutzkeller entfernen, so dass zumindest beim Mobiliar keinen Schaden entstand.";Abwasserrohre verstopft durch Unwetter Dreck Parkplatz Luftschutzkeller;Überschwemmung
Brand nach Dampftram;keine Zypressen und Gratenmobiliar Garten;Feuer
Ein Elektrokurzschluss am Flipperkasten hat zu einem Schwelbrand geführt. Die Feuerwehr, alarmiert durch den Rauchmelder, war vor Ort und konnte das Feuer löschen, bevor es auf andere Mobilien übergreifen konnte. Jedoch wurden vier Türen aufgebrochen.;Flipperkasten  4 Türen, davon eine Eingangstüre;elektrische Überspannung bei Gewitter
Eine Windböe hat die Sonnenstore heruntergerissen.;Sonnenstore. --- Sonnenstore.;Sturmwind
die Sonnenstoren sind bei diesen Temperaturen notwendig. Als über Nacht unvorhergesehen sich eine Regenzelle entlud tränkte diese den gesamten Stoff. Am Morgen waren die Teleskoparme gebrochen.;Sonnenstore keine Sonnenstore;Regen-/Schnee-/Schmelzwasser
Nach den Ferien stellt frau Kräuchi fest dass von einer Wand Wasser in den Laden Gelaufen ist und dass es im Laden übel riecht.;  Wand, Holzverkleidung,Parkett;Wasser: Rückstau
Auslaufen von rostiger Flüssigkeit aus dem defekten Heizungskessel.;  Boden in im Heizungs-Trocknungsraum;Gebäudetechnik
Starkes Gewitter mit Hagelschlag;keine keine Kellerräume unter Wasser und mit Geröll verdreckt. Vor allem Trocknungs- und Reinigungsarbeiten.;Überschwemmung
Wespennest;  Aussenschalung und Dachfirst;Marder-, Nager- oder Insektenschäden
Gewittersturm riss prov. Abdeckung weg. Es regnete ins Gebäude. Pavatex-Decke wurde durchnässt;Nichts Nichts Angehängte Pavatex-Decke;Regen-/Schnee-/Schmelzwasser
morgens 0830 bis 0930 mehrere Blitzeinschläge in nächster Nähe (Blitz bis Knall unter 1 Sekunde);Geschirrspüler Wohnung Fam Hobi Elektronik Steuerung muss ersetzt werden. Ein Spülgang am 29.7. war noch möglich, nachher Funktionsstörung. Gerätekauf Dezember 2009 2405.-  ;elektrische Überspannung bei Gewitter
Versprayte Objekte auf Sporthallen-Gelände.;Keine Glassammelcontainer, Abfalleimer, Brückenfundament Autobahnüberführung Betonmauern Vorplatz Sporthalle;Vandalismus
Sonnenstore ist gebrochen und runtergefallen;Sonnenstore  Wintergartenfenster;Gebäudehaftpflichtsfall
Beschädigung der Fensterstore durch Sturm;Store  Store;Sturmwind
Hagelschaden per obgenanntes Dato. Hagelschaden durch Eiergrosse Hagelkörner. Regionaler Niedergang.;Nein Nein Westliches Dachlichtband aus Plexiglas eingebunden im Dach.;Hagel
Im Jahr 2017 wurden alle Elektroleitungen ausgewechselt. Wir vermuten, dass dabei die gesteckten Rohre verschoben wurden.;keine keine Holzseitenwände und Holztüre ders Küchenmöbels;Leitungsbruch
Unbekannte haben die Fassade versprayt.;  Fassade;Vandalismus
Abwasser Rohrbruch bei WC.;  Mauer hinter WC.;Leitungsbruch
Der Mieter, Herr Brian, hat uns gemeldet, dass er 2 Wespennester entdeckt hat. Tel. Nr. des Mieters: 078 614 31 33;  ;Marder-, Nager- oder Insektenschäden
Ein Wespennest wurde am Unterdach gefunden.;  ;Marder-, Nager- oder Insektenschäden
Rinnstelle / Wasseraustritt -> weitere Infos folgen;noch unbekannt - Meldung erst eingegangen  Wasser tropft von Decke + läuft Wände runter - Schadensursache muss noch genauer festgestellt werden!;Wasser: Rückstau
Bei Regen hat sich im innen liegenden Dachkänel ein Rückstau gebildet. Der Dachkänel hat sich gefüllt und das gestaute Wasser ist durch eine undichten Stelle durch das ganze Haus bis in den Keller gelaufen.;  Keine Da ich per Zufall zu Hause war habe ich den Wassereintritt schnell entdeckt. Dank dem raschen Kommen des Dachdeckers konnte der Rückstau im Dachkänel beseitigt werden.;Wasser: Rückstau
Rohrreiniger wollte Leitung vom Lavabo spülen und ist durchgebrochen. Aufgrund der Küchensanierung wurde von dieser Seite in Richtung Badezimmer aufgespitzt. Wenn das Leck nicht gefunden wird, muss die Badewanne ausgeschnitten werden.;  ;Leitungsbruch
Firstziegel wurde durch starke Böen (Sturmwind Burglind) auf das Dach geworfen;- - Firstziegel und 5 Biberschwanzziegel;Sturmwind
Starke Windstösse wehten Ziegel vom Scheunendach.;  Dach;Sturmwind
Kurzzeitige starke Windböen haben zur Zerstörung der Sonnenstore geführt; elektrische Sonnenstore ;Sturmwind
Durch ein starkes Unwetter hatten wir einen Wassereintritt in die Kellerräumlichkeiten, da der Abwasserschacht die Menge von Wasser nicht abtransportieren konnte.;  Keller, Kellertüren;Überschwemmung
ein kurzes heftiges Gewitter, begleitet von Sturmböen zog über die Region Hünibach.Die Sonennstore auf dem Balkon der Partei Otziger war nicht ganz eingezogen. Eine Windböe beschädigte den Stoff. Das Gestänge erlitt keinen Schaden;  Sonnenstorenstoff;Sturmwind
Hagel;Keine Weiden keine;Hagel
Bei dem Hagelgewitter wurde das Dach des Wintergartens von Familie Beer beschädigt. An einer Einschlagstelle dringt Wasser ein, was bei Frost zum Bersten des Glases führen kann.;  Dach des Wintergartens von Familie Beer, HP links;Hagel
Wasserunterbruch;  ;Überschwemmung
Unter dem Glasdach bei der Sonnenstore wurden zwei Wespennester entdecket.;  ;Marder-, Nager- oder Insektenschäden
Herr Brunner wollte ein einige Holzbretter vom Zivilschutzraum in die Einstellhalle transportieren. In der Nähe der Verglasung zum Mehrfamilienhaus Fuhrenweg 7 C rutschte ihm ein Brett weg und knallte in die Verglasung;  Verglasung;Glasbruch
Stromunterbruch der Elektra Fraubrunnen;Steuerung  Beleuchtungssteuerung im Restaurant Linde.;Gebäudetechnik
Belästigung durch Insekten;  ;Marder-, Nager- oder Insektenschäden
Ziegel sind verschoben an windexponierter Stelle, siehe Fotos im Anhang;keine keine Wenige Ziegelreihen auf dem Dach;Sturmwind
Hagelschaden;  drei Storen;Hagel
Stützmauer eingefallen; Garten mit Einfahrt tragende Mauerelemente für Eingangstore;Wasser: Frost
Wasserleitungsbruch der Zuleitung aussen.;keine keine Wasserleitung (Zuleitung zum Haus);Leitungsbruch
Wespennester unter Storen;keine keine keine;Marder-, Nager- oder Insektenschäden
